/Users/noebrito/Projects/e-commerce-rest-services/src/test/java/com/ecommerce/ecommerce/ECommerceApplicationTests.java
/Users/noebrito/Projects/e-commerce-rest-services/src/test/java/com/ecommerce/ecommerce/services/ProductControllerTest.java
/Users/noebrito/Projects/e-commerce-rest-services/src/test/java/com/ecommerce/ecommerce/services/OrderControllerTest.java
